{
  "iisSettings": {
    "windowsAuthentication": false,
    "anonymousAuthentication": true,
    "iisExpress": {
      "applicationUrl": "http://localhost:55744",
      "sslPort": 44351
    }
  },
  "$schema": "http://json.schemastore.org/launchsettings.json",
  "profiles": {
    "IIS Express": {
      "commandName": "IISExpress",
      "launchBrowser": true,
      "launchUrl": "users",
      "environmentVariables": {
        "CDN_USER": "abelhinha-cdn",
        "ENCRYPTION_FACTOR": "10",
        "PUSHER_APPID": "941827",
        "SECRET_TOKEN": "MIIBVAIBADANBgkqhkiG9w0BAQEFAASCAT4wggE6AgEAAkEAqlcozPuiKTOp9gT3",
        "CDN_PWD": "abelhinha",
        "CDN_PORT": "2020",
        "PUSHER_APPSECRET": "fec10b5b290263ee7050",
        "CDN_HOST": "cdn.abelhinha.tk",
        "DB_CONFIG": "Server=abelhinha.tk; Port=3306; Database=abelhinha;Uid=abelhinha;Pwd=Abelhinha123456;",
        "PUSHER_APPKEY": "707dc13d1555028b71b3",
        "ASPNETCORE_ENVIRONMENT": "Development"
      }
    },
    "AbelhinhaWebAPI": {
      "commandName": "Project",
      "launchBrowser": true,
      "launchUrl": "vehicles",
      "environmentVariables": {
        "ASPNETCORE_ENVIRONMENT": "Development"
      },
      "applicationUrl": "https://localhost:5001;http://localhost:5000"
    }
  }
}